[1m[34m[info] [0m[1mChecking mincost E (true U (( c1_p6 == 1 ) and ( c2_p6 == 1 )))[0m
[1m[34m[info] [0mComputation mode is time
[1m[34m[info] [0mInfimum cost computation uses simple cost state classes.
[1m[34m[info] [0mConvergence method is merge on common markings.
[1m[31mundefined[0m

[1m[36mNo trace.[0m[1m[34m[info] [0mTime: 0.1s (total) = 0.1s (user) + 0.1s (system)
[1m[34m[info] [0mMax memory used: 0.0Mo
