[1m[34m[info] [0m[1mChecking mincost E (true U (((((( c1_p4 == 1 ) and ( c2_p4 == 1 )) and ( c3_p4 == 1 )) and ( c4_p1 == 1 )) and ( c4_p2 == 1 )) and ( c5_p2 == 1 )))[0m
[1m[34m[info] [0mComputation mode is time
[1m[34m[info] [0mInfimum cost computation uses simple cost state classes.
[1m[34m[info] [0mConvergence method is merge on common markings.
[1m[31mundefined[0m

[1m[36mNo trace.[0m[1m[34m[info] [0mTime: 0.1s (total) = 0.1s (user) + 0.0s (system)
[1m[34m[info] [0mMax memory used: 0.5Mo
