[1m[34m[info] [0m[1mChecking mincost E (true U ((( c1_p6 == 1 ) and ( c2_p1 == 1 )) and ( c3_p3 == 1 )))[0m
[1m[34m[info] [0mComputation mode is time
[1m[34m[info] [0mInfimum cost computation uses simple cost state classes.
[1m[34m[info] [0mConvergence method is merge on common markings.
[1m[32m=-649[0m
[1m[36m
Trace: c3_p0_odocks, c3_p0_od0_c3_t0, c2_p0_odocks, c1_p0_odocks, c1_p0_od1_c1_t12, c1_p6_id3_c1_t12, c3_p1_id0_c3_t0, c3_p1_idocks, c3_p1_odocks, c3_p1_od0_c3_t1, c1_p0_od0_c1_t0, c3_p2_id0_c3_t1, c3_p2_idocks, c3_p2_odocks, c3_p2_od0_c3_t2, c3_p3_id0_c3_t2, c3_p3_idocks, c1_p1_id0_c1_t0, c1_p1_idocks, c1_p1_odocks, c1_p1_od2_c1_t3, c1_p1_od1_c1_t2, c1_p1_od0_c1_t1, c1_p2_id1_c1_t2, c1_p2_id2_c1_t3, c1_p2_id0_c1_t1, c1_p2_idocks, c2_p0_od0_c2_t0, c1_p2_odocks, c1_p2_od0_c1_t4, c2_p1_id0_c2_t0, c1_p3_id0_c1_t4, c1_p3_idocks, c1_p3_odocks, c1_p3_od2_c1_t7, c1_p3_od1_c1_t6, c1_p3_od0_c1_t5, c1_p4_id0_c1_t5, c1_p4_id1_c1_t6, c1_p4_id2_c1_t7, c1_p4_idocks, c2_p0_od1_c2_t1, c1_p4_odocks, c1_p4_od0_c1_t8, c2_p1_id1_c2_t1, c1_p5_id0_c1_t8, c1_p5_idocks, c1_p5_odocks, c1_p5_od2_c1_t11, c1_p5_od1_c1_t10, c1_p5_od0_c1_t9, c1_p6_id1_c1_t10, c1_p6_id2_c1_t11, c1_p6_id0_c1_t9, c1_p6_idocks, c2_p0_od2_c2_t2, c2_p1_id2_c2_t2, c2_p1_idocks[0m
[1m[34m[info] [0mTime: 0.1s (total) = 0.1s (user) + 0.1s (system)
[1m[34m[info] [0mMax memory used: 0.0Mo
