[1m[34m[info] [0m[1mChecking not (E (true U not (( badsequence == 0 ))))[0m
[1m[34m[info] [0mComputation mode is time
[1m[34m[info] [0mComputation method is state classes.
[1m[34m[info] [0mConvergence method is merge on common markings.
[1m[31mfalse[0m
[1m[36m
Trace: c4_p0_odocks, c3_p0_odocks, c2_p0_odocks, c1_p0_odocks, c1_p0_od0_c1_t0, c1_p1_id0_c1_t0, c1_p1_idocks, c2_p0_od0_c2_t0, c1_p1_odocks, c1_p1_od0_c1_t1, c2_p1_id0_c2_t0, c4_t2_c2_t0_order[0m
[1m[34m[info] [0mTime: 0.1s (total) = 0.1s (user) + 0.0s (system)
[1m[34m[info] [0mMax memory used: 0.0Mo
