[1m[34m[info] [0m[1mChecking A (true U ((((( c1_p4 == 1 ) and ( c2_p4 == 1 )) and ( c3_p4 == 1 )) and ( c4_p2 == 1 )) and ( c5_p1 == 1 )))[0m
[1m[34m[info] [0mComputation mode is time
[1m[34m[info] [0mComputation method is state classes.
[1m[34m[info] [0mConvergence method is merge on common markings.
[1m[32mtrue[0m
[1m[36m
No trace.[0m
[1m[34m[info] [0mTime: 0.1s (total) = 0.1s (user) + 0.1s (system)
[1m[34m[info] [0mMax memory used: 0.0Mo
