[1m[34m[info] [0m[1mChecking mincost E (true U (((( c1_p10 == 1 ) and ( c2_p1 == 1 )) and ( c3_p5 == 1 )) and ( c4_p5 == 1 )))[0m
[1m[34m[info] [0mComputation mode is time
[1m[34m[info] [0mInfimum cost computation uses simple cost state classes.
[1m[34m[info] [0mConvergence method is merge on common markings.
[1m[32m=-699[0m
[1m[36m
Trace: c4_p0_odocks, c3_p0_odocks, c2_p0_odocks, c1_p0_odocks, c1_p0_od0_c1_t0, c1_p1_id0_c1_t0, c1_p1_idocks, c2_p0_od0_c2_t0, c1_p1_odocks, c1_p1_od0_c1_t1, c2_p1_id0_c2_t0, c1_p2_id0_c1_t1, c1_p2_idocks, c3_p0_od0_c3_t0, c2_p0_od1_c2_t1, c1_p2_odocks, c1_p2_od0_c1_t2, c3_p1_id0_c3_t0, c3_p1_idocks, c3_p1_odocks, c1_p3_id0_c1_t2, c1_p3_idocks, c3_p1_od0_c3_t1, c2_p0_od2_c2_t2, c1_p3_odocks, c1_p3_od0_c1_t3, c2_p1_id2_c2_t2, c2_p1_id1_c2_t1, c3_p2_id0_c3_t1, c3_p2_idocks, c3_p2_odocks, c1_p4_id0_c1_t3, c1_p4_idocks, c1_p4_odocks, c1_p4_od0_c1_t4, c1_p5_id0_c1_t4, c1_p5_idocks, c3_p2_od0_c3_t2, c1_p5_odocks, c1_p5_od0_c1_t5, c3_p3_id0_c3_t2, c3_p3_idocks, c3_p3_odocks, c1_p6_id0_c1_t5, c1_p6_idocks, c4_p0_od0_c4_t0, c2_p0_od4_c2_t4, c1_p6_odocks, c1_p6_od0_c1_t6, c4_p1_id0_c4_t0, c4_p1_idocks, c4_p1_odocks, c1_p7_id0_c1_t6, c1_p7_idocks, c4_p1_od0_c4_t1, c3_p3_od0_c3_t3, c1_p7_odocks, c1_p7_od0_c1_t7, c2_p1_id4_c2_t4, c1_p8_id0_c1_t7, c1_p8_idocks, c1_p8_odocks, c1_p8_od0_c1_t8, c3_p4_id0_c3_t3, c3_p4_idocks, c3_p4_odocks, c3_p4_od0_c3_t4, c4_p2_id0_c4_t1, c4_p2_idocks, c4_p2_odocks, c4_p2_od0_c4_t2, c3_p5_id0_c3_t4, c3_p5_idocks, c1_p9_id0_c1_t8, c1_p9_idocks, c1_p9_odocks, c1_p9_od0_c1_t9, c4_p3_id0_c4_t2, c4_p3_idocks, c4_p3_odocks, c4_p3_od0_c4_t3, c1_p10_id0_c1_t9, c1_p10_idocks, c2_p0_od3_c2_t3, c4_p4_id0_c4_t3, c4_p4_idocks, c4_p4_odocks, c4_p4_od0_c4_t4, c2_p1_id3_c2_t3, c2_p1_idocks, c4_p5_id0_c4_t4, c4_p5_idocks[0m
[1m[34m[info] [0mTime: 0.1s (total) = 0.1s (user) + 0.1s (system)
[1m[34m[info] [0mMax memory used: 0.0Mo
