[1m[34m[info] [0m[1mChecking A (true U (((( c1_p6 == 1 ) and ( c2_p10 == 1 )) and ( c3_p8 == 1 )) and ( c4_p5 == 1 )))[0m
[1m[34m[info] [0mComputation mode is time
[1m[34m[info] [0mComputation method is state classes.
[1m[34m[info] [0mConvergence method is merge on common markings.
[1m[32mtrue[0m
[1m[36m
No trace.[0m
[1m[34m[info] [0mTime: 0.4s (total) = 0.4s (user) + 0.1s (system)
[1m[34m[info] [0mMax memory used: 1.4Mo
