[1m[34m[info] [0m[1mChecking mincost E (true U (((( c1_p6 == 1 ) and ( c2_p10 == 1 )) and ( c3_p8 == 1 )) and ( c4_p5 == 1 )))[0m
[1m[34m[info] [0mComputation mode is time
[1m[34m[info] [0mInfimum cost computation uses simple cost state classes.
[1m[34m[info] [0mConvergence method is merge on common markings.
[1m[32m=-980[0m
[1m[36m
Trace: c4_p0_odocks, c3_p0_odocks, c3_p0_od1_c3_t16, c2_p0_odocks, c2_p0_od1_c2_t20, c1_p0_odocks, c1_p0_od0_c1_t0, c1_p1_id0_c1_t0, c1_p1_idocks, c2_p0_od0_c2_t0, c1_p1_odocks, c1_p1_od0_c1_t1, c3_p8_id3_c3_t16, c2_p10_id3_c2_t20, c1_p2_id0_c1_t1, c1_p2_idocks, c1_p2_odocks, c1_p2_od0_c1_t2, c2_p1_id0_c2_t0, c2_p1_idocks, c2_p1_odocks, c2_p1_od2_c2_t3, c2_p1_od1_c2_t2, c2_p1_od0_c2_t1, c1_p3_id0_c1_t2, c1_p3_idocks, c1_p3_odocks, c1_p3_od0_c1_t3, c1_p4_id0_c1_t3, c1_p4_idocks, c1_p4_odocks, c1_p4_od0_c1_t4, c2_p2_id2_c2_t3, c2_p2_id1_c2_t2, c2_p2_id0_c2_t1, c2_p2_idocks, c2_p2_odocks, c2_p2_od0_c2_t4, c1_p5_id0_c1_t4, c1_p5_idocks, c1_p5_odocks, c1_p5_od0_c1_t5, c2_p3_id0_c2_t4, c2_p3_idocks, c2_p3_odocks, c2_p3_od2_c2_t7, c2_p3_od1_c2_t6, c2_p3_od0_c2_t5, c2_p4_id1_c2_t6, c1_p6_id0_c1_t5, c1_p6_idocks, c3_p0_od0_c3_t0, c2_p4_id0_c2_t5, c2_p4_id2_c2_t7, c2_p4_idocks, c2_p4_odocks, c2_p4_od0_c2_t8, c3_p1_id0_c3_t0, c3_p1_idocks, c3_p1_odocks, c3_p1_od2_c3_t3, c3_p1_od1_c3_t2, c3_p1_od0_c3_t1, c3_p2_id2_c3_t3, c3_p2_id0_c3_t1, c2_p5_id0_c2_t8, c2_p5_idocks, c2_p5_odocks, c2_p5_od2_c2_t11, c2_p5_od1_c2_t10, c2_p5_od0_c2_t9, c2_p6_id2_c2_t11, c2_p6_id0_c2_t9, c2_p6_id1_c2_t10, c2_p6_idocks, c2_p6_odocks, c2_p6_od0_c2_t12, c3_p2_id1_c3_t2, c3_p2_idocks, c3_p2_odocks, c3_p2_od0_c3_t4, c2_p7_id0_c2_t12, c2_p7_idocks, c2_p7_odocks, c2_p7_od2_c2_t15, c2_p7_od1_c2_t14, c2_p7_od0_c2_t13, c3_p3_id0_c3_t4, c3_p3_idocks, c3_p3_odocks, c3_p3_od2_c3_t7, c3_p3_od1_c3_t6, c3_p3_od0_c3_t5, c2_p8_id0_c2_t13, c3_p4_id1_c3_t6, c3_p4_id0_c3_t5, c2_p8_id2_c2_t15, c2_p8_id1_c2_t14, c2_p8_idocks, c4_p0_od0_c4_t0, c2_p8_odocks, c2_p8_od0_c2_t16, c3_p4_id2_c3_t7, c3_p4_idocks, c3_p4_odocks, c3_p4_od0_c3_t8, c2_p9_id0_c2_t16, c2_p9_idocks, c2_p9_odocks, c2_p9_od2_c2_t19, c2_p9_od1_c2_t18, c2_p9_od0_c2_t17, c2_p10_id1_c2_t18, c2_p10_id0_c2_t17, c4_p1_id0_c4_t0, c4_p1_idocks, c4_p1_odocks, c3_p5_id0_c3_t8, c3_p5_idocks, c3_p5_odocks, c3_p5_od2_c3_t11, c3_p5_od1_c3_t10, c3_p5_od0_c3_t9, c3_p6_id1_c3_t10, c3_p6_id0_c3_t9, c2_p10_id2_c2_t19, c2_p10_idocks, c4_p1_od0_c4_t1, c3_p6_id2_c3_t11, c3_p6_idocks, c3_p6_odocks, c3_p6_od0_c3_t12, c3_p7_id0_c3_t12, c3_p7_idocks, c3_p7_odocks, c3_p7_od2_c3_t15, c3_p7_od1_c3_t14, c3_p7_od0_c3_t13, c3_p8_id0_c3_t13, c4_p2_id0_c4_t1, c4_p2_idocks, c4_p2_odocks, c4_p2_od0_c4_t2, c3_p8_id2_c3_t15, c3_p8_id1_c3_t14, c3_p8_idocks, c4_p3_id0_c4_t2, c4_p3_idocks, c4_p3_odocks, c4_p3_od0_c4_t3, c4_p4_id0_c4_t3, c4_p4_idocks, c4_p4_odocks, c4_p4_od0_c4_t4, c4_p5_id0_c4_t4, c4_p5_idocks[0m
[1m[34m[info] [0mTime: 1.0s (total) = 1.0s (user) + 0.1s (system)
[1m[34m[info] [0mMax memory used: 4.8Mo
