[1m[34m[info] [0m[1mChecking not (E (true U not ((((( c3_p0 == 0 ) or ( c1_p0 == 1 )) or ( c2_p3 == 1 )) or ( c4_p3 == 1 )))))[0m
[1m[34m[info] [0mComputation mode is time
[1m[34m[info] [0mComputation method is state classes.
[1m[34m[info] [0mConvergence method is merge on common markings.
[1m[31mfalse[0m
[1m[36m
Trace: c1_p0_odocks[0m
[1m[34m[info] [0mTime: 0.1s (total) = 0.0s (user) + 0.1s (system)
[1m[34m[info] [0mMax memory used: 0.0Mo
