[1m[34m[info] [0m[1mChecking mincost E (true U ((((( c1_p6 == 1 ) and ( c2_p3 == 1 )) and ( c3_p1 == 1 )) and ( c3_p2 == 1 )) and ( c3_p3 == 1 )))[0m
[1m[34m[info] [0mComputation mode is time
[1m[34m[info] [0mInfimum cost computation uses simple cost state classes.
[1m[34m[info] [0mConvergence method is merge on common markings.
[1m[32m=551[0m

[1m[36mTrace: [0m[1m[36mc3_p0_odocks@0, c3_p0_od2_c3_t2@0, c3_p0_od1_c3_t1@0, c3_p0_od0_c3_t0@0, c2_p0_odocks@0, c1_p0_odocks@0, c1_p0_od1_c1_t12@0, c3_p2_id0_c3_t1@17, c3_p2_idocks@17, c3_p1_id0_c3_t0@45, c3_p1_idocks@45, c3_p3_id0_c3_t2@72, c3_p3_idocks@72, c1_p0_od0_c1_t0@72, c1_p6_id3_c1_t12@93, c1_p1_id0_c1_t0@105, c1_p1_idocks@105, c1_p1_odocks@105, c1_p1_od2_c1_t3@105, c1_p1_od1_c1_t2@105, c1_p1_od0_c1_t1@105, c1_p2_id2_c1_t3@123, c1_p2_id0_c1_t1@124, c1_p2_id1_c1_t2@135, c1_p2_idocks@135, c2_p0_od0_c2_t0@135, c1_p2_odocks@135, c1_p2_od0_c1_t4@135, c2_p1_id0_c2_t0@223, c2_p1_idocks@223, c2_p1_odocks@223, c1_p3_id0_c1_t4@229, c1_p3_idocks@229, c1_p3_odocks@229, c1_p3_od2_c1_t7@229, c1_p3_od1_c1_t6@229, c1_p3_od0_c1_t5@229, c1_p4_id1_c1_t6@266, c1_p4_id2_c1_t7@301, c1_p4_id0_c1_t5@312, c1_p4_idocks@312, c2_p1_od0_c2_t1@312, c1_p4_odocks@312, c1_p4_od0_c1_t8@312, c2_p2_id0_c2_t1@325, c2_p2_idocks@325, c2_p2_odocks@325, c1_p5_id0_c1_t8@402, c1_p5_idocks@402, c1_p5_odocks@402, c1_p5_od2_c1_t11@402, c1_p5_od1_c1_t10@402, c1_p5_od0_c1_t9@402, c1_p6_id0_c1_t9@407, c1_p6_id2_c1_t11@411, c1_p6_id1_c1_t10@481, c1_p6_idocks@481, c2_p2_od0_c2_t2@481, c2_p3_id0_c2_t2@551, c2_p3_idocks@551[0m
[1m[34m[info] [0mTime: 0.1s (total) = 0.1s (user) + 0.1s (system)
[1m[34m[info] [0mMax memory used: 0.0Mo
