[1m[34m[info] [0m[1mChecking not (E (true U not (( badsequence == 0 ))))[0m
[1m[34m[info] [0mComputation mode is time
[1m[34m[info] [0mComputation method is state classes.
[1m[34m[info] [0mConvergence method is merge on common markings.
[1m[32mtrue[0m
[1m[36m
No trace.[0m
[1m[34m[info] [0mTime: 0.1s (total) = 0.1s (user) + 0.1s (system)
[1m[34m[info] [0mMax memory used: 0.0Mo
