[1m[34m[info] [0m[1mChecking mincost E (true U (((( c1_p4 == 1 ) and ( c2_p4 == 1 )) and ( c3_p3 == 1 )) and ( c4_p3 == 1 )))[0m
[1m[34m[info] [0mComputation mode is time
[1m[34m[info] [0mInfimum cost computation uses simple cost state classes.
[1m[34m[info] [0mConvergence method is merge on common markings.
[1m[32m=437[0m

[1m[36mTrace: [0m[1m[36mc4_p0_odocks@0, c4_p0_od0_c4_t0@0, c3_p0_odocks@0, c2_p0_odocks@0, c2_p0_od1_c2_t8@0, c1_p0_odocks@0, c1_p0_od1_c1_t8@0, c4_p1_id0_c4_t0@8, c4_p1_idocks@8, c4_p1_odocks@8, c4_p1_od0_c4_t1@8, c1_p0_od0_c1_t0@8, c4_p2_id0_c4_t1@41, c4_p2_idocks@41, c4_p2_odocks@41, c4_p2_od0_c4_t2@41, c2_p4_id3_c2_t8@55, c1_p1_id0_c1_t0@55, c1_p1_idocks@55, c1_p1_odocks@55, c1_p1_od2_c1_t3@55, c1_p1_od1_c1_t2@55, c1_p1_od0_c1_t1@55, c1_p2_id0_c1_t1@78, c1_p2_id2_c1_t3@90, c1_p4_id3_c1_t8@99, c1_p2_id1_c1_t2@105, c1_p2_idocks@105, c2_p0_od0_c2_t0@105, c1_p2_odocks@105, c4_p3_id0_c4_t2@136, c4_p3_idocks@136, c2_p1_id0_c2_t0@170, c2_p1_idocks@170, c2_p1_odocks@170, c2_p1_od2_c2_t3@170, c2_p1_od1_c2_t2@170, c2_p1_od0_c2_t1@170, c2_p2_id1_c2_t2@203, c2_p2_id0_c2_t1@204, c2_p2_id2_c2_t3@205, c2_p2_idocks@205, c3_p0_od0_c3_t0@205, c2_p2_odocks@205, c2_p2_od0_c2_t4@205, c2_p3_id0_c2_t4@243, c2_p3_idocks@243, c2_p3_odocks@243, c2_p3_od2_c2_t7@243, c2_p3_od1_c2_t6@243, c2_p3_od0_c2_t5@243, c3_p1_id0_c3_t0@251, c3_p1_idocks@251, c3_p1_odocks@251, c2_p4_id0_c2_t5@254, c2_p4_id2_c2_t7@264, c2_p4_id1_c2_t6@302, c2_p4_idocks@302, c1_p2_od0_c1_t4@302, c1_p3_id0_c1_t4@363, c1_p3_idocks@363, c1_p3_odocks@363, c1_p3_od2_c1_t7@363, c1_p3_od1_c1_t6@363, c1_p3_od0_c1_t5@363, c1_p4_id0_c1_t5@371, c1_p4_id1_c1_t6@398, c1_p4_id2_c1_t7@425, c1_p4_idocks@425, c3_p1_od0_c3_t1@425, c3_p2_id0_c3_t1@436, c3_p2_idocks@436, c3_p2_odocks@436, c3_p2_od0_c3_t2@436, c3_p3_id0_c3_t2@437, c3_p3_idocks@437[0m
[1m[34m[info] [0mTime: 0.1s (total) = 0.1s (user) + 0.1s (system)
[1m[34m[info] [0mMax memory used: 0.0Mo
